{
    "fluentMethods": true,
    "relationships": [],
    "fields": [
        {
            "fieldName": "first_name",
            "fieldType": "String",
            "fieldValidateRules": [
                "required"
            ]
        },
        {
            "fieldName": "last_name",
            "fieldType": "String",
            "fieldValidateRules": []
        },
        {
            "fieldName": "age",
            "fieldType": "Integer",
            "fieldValidateRules": [
                "required"
            ]
        },
        {
            "fieldName": "gender",
            "fieldType": "String",
            "fieldValidateRules": [
                "required"
            ]
        },
        {
            "fieldName": "categoty",
            "fieldType": "String",
            "fieldValidateRules": [
                "required"
            ]
        },
        {
            "fieldName": "state",
            "fieldType": "String",
            "fieldValidateRules": [
                "required"
            ]
        },
        {
            "fieldName": "district",
            "fieldType": "String",
            "fieldValidateRules": [
                "required"
            ]
        },
        {
            "fieldName": "address",
            "fieldType": "String",
            "fieldValidateRules": [
                "required"
            ]
        },
        {
            "fieldName": "relation_with_patient",
            "fieldType": "String"
        },
        {
            "fieldName": "name_who_bought_patient",
            "fieldType": "String"
        },
        {
            "fieldName": "speciality",
            "fieldType": "String"
        },
        {
            "fieldName": "doctor_to_visit",
            "fieldType": "String"
        },
        {
            "fieldName": "refrel_type",
            "fieldType": "String"
        },
        {
            "fieldName": "refered_by",
            "fieldType": "String"
        },
        {
            "fieldName": "registration_fee",
            "fieldType": "Integer",
            "fieldValidateRules": [
                "required"
            ]
        },
        {
            "fieldName": "uid",
            "fieldType": "Integer",
            "fieldValidateRules": [
                "required"
            ]
        },
        {
            "fieldName": "phone_number",
            "fieldType": "Long",
            "fieldValidateRules": [
                "required"
            ]
        },
        {
            "fieldName": "uid_random",
            "fieldType": "String"
        }
    ],
    "changelogDate": "20170804054306",
    "dto": "mapstruct",
    "service": "serviceImpl",
    "entityTableName": "registration",
    "pagination": "no"
}
